{
  "documents": [
    {
      "name": "Redirect.txt",
      "date": "17.08.2022 21:23:29",
      "user": "admin",
      "version" : "V1.0.0",
      "changeJustification": "Imported from File!",
      "notification" : "Test timer notification .",
      "notificationDate" : "18.08.2022 16:00:00",
      "isNotificationShown" : "false",
      "requests": [

          "Password policy","Password protection from users"
      ]
    },
    {
      "name": "Test.txt",
      "date": "17.08.2022 21:23:29",
      "user": "admin",
      "version" : "V1.0.0",
      "changeJustification": "Imported from File!",
      "notification" : "Test timer notification .",
      "notificationDate" : "18.08.2022 16:00:00",
      "isNotificationShown" : "false",
      "requests": [
          "Password policy"
      ]
    }
  ]
}